#FIG 3.2  Produced by xfig version 3.2.5c
Landscape
Center
Inches
Letter  
100.00
Single
-2
1200 2
6 4410 4185 5130 4560
4 0 0 50 -1 0 24 0.0000 4 330 360 4770 4470 ,T\001
4 0 0 50 -1 32 24 0.0000 4 375 210 4410 4470 f\001
4 0 0 50 -1 0 18 0.0000 4 135 150 4635 4545 x\001
-6
6 7860 3885 8805 4320
4 0 0 50 -1 32 24 0.0000 4 375 210 7860 4170 f\001
4 0 0 50 -1 0 24 0.0000 4 330 465 8190 4170 ,M\001
4 0 0 50 -1 0 18 0.0000 4 195 150 8055 4260 y\001
4 0 0 50 -1 0 18 0.0000 4 195 150 8655 4215 y\001
-6
6 6660 2715 7590 3090
4 0 0 50 -1 0 24 0.0000 4 330 465 6990 3000 ,M\001
4 0 0 50 -1 32 24 0.0000 4 375 210 6660 3000 f\001
4 0 0 50 -1 0 18 0.0000 4 135 135 6870 3060 z\001
4 0 0 50 -1 0 18 0.0000 4 135 135 7455 3060 z\001
-6
2 1 0 3 0 7 50 -1 -1 0.000 0 0 -1 0 0 2
	 5700 3075 10350 1425
2 1 0 3 0 7 50 -1 -1 0.000 0 0 -1 0 0 2
	 7187 3413 11837 1763
2 1 0 3 0 7 50 -1 -1 0.000 0 0 -1 0 0 2
	 7187 5063 11837 3413
2 1 1 3 0 7 50 -1 -1 8.000 0 0 -1 0 0 5
	 5700 3075 7200 3375 7200 5100 5775 4725 5700 3000
2 1 0 3 0 7 50 -1 -1 8.000 0 0 -1 0 0 2
	 6525 3975 6525 4275
2 1 3 1 0 7 50 -1 -1 8.000 0 0 -1 0 0 2
	 3300 5250 11475 2400
2 1 0 3 0 7 50 -1 -1 8.000 0 0 -1 0 0 2
	 6240 4080 6765 4155
2 1 0 1 0 7 50 -1 -1 4.000 0 0 -1 1 0 2
	1 1 1.00 60.00 120.00
	 6525 4125 9180 4680
2 1 0 1 0 7 50 -1 -1 4.000 0 0 -1 1 0 2
	1 1 1.00 60.00 120.00
	 6525 4140 4440 4845
2 1 0 1 0 7 50 -1 -1 4.000 0 0 -1 1 0 2
	1 1 1.00 60.00 120.00
	 6540 4140 6540 1800
2 1 0 2 0 7 50 -1 -1 6.000 0 0 -1 1 0 2
	1 1 2.00 120.00 240.00
	 6540 4140 5610 4440
2 1 0 2 0 7 50 -1 -1 6.000 0 0 -1 1 0 2
	1 1 2.00 120.00 240.00
	 6555 4140 7515 4335
2 1 0 2 0 7 50 -1 -1 6.000 0 0 -1 1 0 2
	1 1 2.00 120.00 240.00
	 6540 4155 6540 3330
2 1 0 2 0 7 50 -1 -1 6.000 0 0 -1 1 0 2
	1 1 2.00 120.00 240.00
	 5355 4545 4980 4665
2 1 0 2 0 7 50 -1 -1 6.000 0 0 -1 1 0 2
	1 1 2.00 120.00 240.00
	 4980 4665 4815 4710
2 1 0 2 0 7 50 -1 -1 6.000 0 0 -1 1 0 2
	1 1 2.00 120.00 240.00
	 7740 4395 8070 4440
2 1 0 2 0 7 50 -1 -1 6.000 0 0 -1 1 0 2
	1 1 2.00 120.00 240.00
	 8070 4440 8310 4485
2 1 0 2 0 7 50 -1 -1 6.000 0 0 -1 1 0 2
	1 1 2.00 120.00 240.00
	 6540 3090 6540 2610
2 1 0 2 0 7 50 -1 -1 6.000 0 0 -1 1 0 2
	1 1 2.00 120.00 240.00
	 6540 2610 6540 2370
2 1 0 2 0 7 50 -1 -1 6.000 0 0 -1 1 0 2
	1 1 2.00 120.00 240.00
	 10200 2850 11625 3045
2 1 0 2 0 7 50 -1 -1 6.000 0 0 -1 1 0 2
	1 1 2.00 120.00 240.00
	 10215 2850 9180 3195
2 1 0 2 0 7 50 -1 -1 6.000 0 0 -1 1 0 2
	1 1 2.00 120.00 240.00
	 10215 2790 10215 1695
2 1 0 1 0 7 50 -1 -1 4.000 0 0 -1 0 0 4
	 9660 3150 9690 3030 10080 4725 12765 4725
2 1 0 1 0 7 50 -1 -1 4.000 0 0 -1 0 0 3
	 11160 3075 11085 2955 10095 4755
2 1 0 1 0 7 50 -1 -1 4.000 0 0 -1 0 0 4
	 10140 2250 10215 2175 9315 1470 6915 1470
2 1 0 3 0 7 50 -1 -1 8.000 0 0 -1 0 0 2
	 10350 1410 9465 60
2 1 0 3 0 7 50 -1 -1 8.000 0 0 -1 0 0 2
	 9525 1440 9690 1665
2 1 0 3 0 7 50 -1 -1 8.000 0 0 -1 0 0 2
	 11865 1740 10920 210
2 1 0 3 0 7 50 -1 -1 8.000 0 0 -1 0 0 2
	 11865 1740 11865 3420
3 0 0 1 0 7 50 -1 -1 4.000 0 0 0 4
	 9480 75 9255 585 9735 960 9525 1440
	 0.000 1.000 1.000 0.000
3 0 0 1 0 7 50 -1 -1 4.000 0 0 0 4
	 9510 90 10065 435 10530 75 10965 225
	 0.000 1.000 1.000 0.000
4 0 0 50 -1 0 24 0.0000 4 270 270 6540 4455 C\001
4 0 0 50 -1 0 24 0.0000 4 180 210 4620 5115 x\001
4 0 0 50 -1 0 24 0.0000 4 270 210 8910 4920 y\001
4 0 0 50 -1 0 24 0.0000 4 180 180 6540 2145 z\001
4 0 0 50 -1 0 24 0.0000 4 330 615 5505 4875 u,N\001
4 0 0 50 -1 0 24 0.0000 4 330 615 6885 4635 v,V\001
4 0 0 50 -1 0 18 0.0000 4 135 135 6270 2550 z\001
4 0 0 50 -1 0 18 0.0000 4 195 150 7455 4650 y\001
4 0 0 50 -1 0 24 0.0000 4 330 705 5775 3675 w,V\001
4 0 0 50 -1 0 18 0.0000 4 270 2070 10365 4635 load components\001
4 0 0 50 -1 0 18 0.0000 4 270 1995 10140 5025 in planar frames\001
4 0 0 50 -1 0 18 0.0000 4 210 1695 7005 1365 load direction\001
4 0 0 50 -1 0 18 0.0000 4 270 1440 6930 1710 in gridwork\001
4 0 0 50 -1 0 18 0.0000 4 135 135 6375 3750 z\001
