#FIG 3.2  Produced by xfig version 3.2.6a
Landscape
Center
Metric
A4
100.00
Single
-2
1200 2
6 -360 4500 450 4680
2 1 0 1 0 7 50 -1 -1 0.000 0 0 -1 0 0 2
	 -360 4500 450 4500
2 1 0 1 0 7 50 -1 -1 0.000 0 0 -1 0 0 2
	 -180 4500 -360 4680
2 1 0 1 0 7 50 -1 -1 0.000 0 0 -1 0 0 2
	 0 4500 -180 4680
2 1 0 1 0 7 50 -1 -1 0.000 0 0 -1 0 0 2
	 180 4500 0 4680
2 1 0 1 0 7 50 -1 -1 0.000 0 0 -1 0 0 2
	 360 4500 180 4680
-6
6 1755 4500 2565 4680
2 1 0 1 0 7 50 -1 -1 0.000 0 0 -1 0 0 2
	 1755 4500 2565 4500
2 1 0 1 0 7 50 -1 -1 0.000 0 0 -1 0 0 2
	 1935 4500 1755 4680
2 1 0 1 0 7 50 -1 -1 0.000 0 0 -1 0 0 2
	 2115 4500 1935 4680
2 1 0 1 0 7 50 -1 -1 0.000 0 0 -1 0 0 2
	 2295 4500 2115 4680
2 1 0 1 0 7 50 -1 -1 0.000 0 0 -1 0 0 2
	 2475 4500 2295 4680
-6
6 990 945 1350 1305
1 3 0 1 0 7 50 -1 -1 0.000 1 0.0000 1170 1125 142 142 1170 1125 1305 1080
2 1 0 1 0 7 50 -1 -1 0.000 0 0 -1 0 0 2
	 1080 1215 1305 1035
2 1 0 1 0 7 50 -1 -1 0.000 0 0 -1 0 0 2
	 1080 1035 1305 1260
-6
1 3 0 1 0 7 50 -1 -1 0.000 1 0.0000 0 2250 162 162 0 2250 135 2160
2 1 0 3 0 7 50 -1 -1 0.000 0 0 -1 0 0 3
	 0 4500 0 2250 1170 1125
2 1 0 3 0 7 50 -1 -1 0.000 0 0 -1 0 0 3
	 2115 4500 3375 2655 4725 2250
2 3 0 1 0 7 50 -1 -1 0.000 0 0 -1 0 0 4
	 3375 2655 3195 3015 3600 3015 3375 2655
2 1 0 2 0 7 50 -1 -1 0.000 0 0 -1 1 0 2
	1 1 2.00 120.00 240.00
	 4680 1395 4680 2205
2 1 0 1 0 7 50 -1 -1 0.000 0 0 -1 0 0 2
	 0 4860 0 5400
2 1 0 1 0 7 50 -1 -1 0.000 0 0 -1 0 0 2
	 1125 4860 1125 5400
2 1 0 1 0 7 50 -1 -1 0.000 0 0 -1 0 0 2
	 -675 1125 270 1125
2 1 0 1 0 7 50 -1 -1 0.000 0 0 -1 0 0 2
	 -675 2250 -225 2250
2 1 0 1 0 7 50 -1 -1 0.000 0 0 -1 0 0 2
	 -630 4500 -180 4500
2 1 0 1 0 7 50 -1 -1 0.000 0 0 -1 1 1 2
	1 1 1.00 60.00 120.00
	1 1 1.00 60.00 120.00
	 0 5220 1125 5220
2 1 0 1 0 7 50 -1 -1 0.000 0 0 -1 1 1 2
	1 1 1.00 60.00 120.00
	1 1 1.00 60.00 120.00
	 -630 4500 -630 2250
2 1 0 1 0 7 50 -1 -1 0.000 0 0 -1 1 1 2
	1 1 1.00 60.00 120.00
	1 1 1.00 60.00 120.00
	 -630 2250 -630 1125
2 1 0 2 0 7 50 -1 -1 0.000 0 0 -1 1 0 2
	1 1 2.00 120.00 240.00
	 -1035 5175 -270 5175
2 1 0 2 0 7 50 -1 -1 0.000 0 0 -1 1 0 2
	1 1 2.00 120.00 240.00
	 -1080 5175 -1080 4455
2 1 0 3 0 7 50 -1 -1 0.000 0 0 -1 0 0 3
	 5426 4532 6686 2687 8036 2282
2 1 0 1 0 7 50 -1 -1 0.000 0 0 -1 0 0 3
	 6705 2700 6705 1890 8055 2295
2 1 0 1 0 7 50 -1 -1 0.000 0 0 -1 0 0 3
	 6705 2160 5445 4815 5445 4500
2 1 0 3 0 7 50 -1 -1 0.000 0 0 -1 0 0 3
	 8164 4527 9424 2682 10774 2277
2 1 0 1 0 7 50 -1 -1 0.000 0 0 -1 0 0 4
	 9405 2700 9405 2025 10800 1665 10800 2295
2 1 0 1 0 7 50 -1 -1 0.000 0 0 -1 0 0 3
	 8145 4500 8145 4275 9405 2475
2 1 0 2 0 7 50 -1 -1 0.000 0 0 -1 1 0 2
	2 0 1.00 60.00 120.00
	 10215 4005 9180 4005
2 1 0 2 0 7 50 -1 -1 0.000 0 0 -1 1 0 2
	2 0 1.00 60.00 120.00
	 10800 3375 10305 2655
2 1 0 3 0 7 50 -1 -1 0.000 0 0 -1 0 0 3
	 11092 4538 12352 2693 13702 2288
2 1 0 2 0 7 50 -1 -1 0.000 0 0 -1 1 0 4
	2 0 1.00 60.00 120.00
	 11115 4500 11115 3780 12330 1980 12330 2700
4 0 0 50 -1 0 24 0.0000 4 285 210 450 5175 5\001
4 0 0 50 -1 0 24 1.5708 4 270 420 -675 3735 10\001
4 0 0 50 -1 0 24 1.5708 4 285 210 -675 1845 5\001
4 0 0 50 -1 0 24 0.0000 4 270 210 4275 1665 1\001
4 0 0 50 -1 0 24 0.0000 4 270 210 180 4410 1\001
4 0 0 50 -1 0 24 0.0000 4 270 210 270 2610 2\001
4 0 0 50 -1 0 24 0.0000 4 270 210 1215 1575 3\001
4 0 0 50 -1 0 24 0.0000 4 270 210 2475 4455 1\001
4 0 0 50 -1 0 24 0.0000 4 270 210 3645 2925 2\001
4 0 0 50 -1 0 24 0.0000 4 270 210 4545 2700 3\001
4 0 0 50 -1 0 24 0.0000 4 180 210 -765 5535 x\001
4 0 0 50 -1 0 24 0.0000 4 270 210 -1035 4905 y\001
4 0 0 50 -1 0 18 0.0000 4 195 150 -585 5625 g\001
4 0 0 50 -1 0 18 0.0000 4 195 150 -900 4995 g\001
4 0 0 50 -1 0 24 0.0000 4 270 735 6750 1800 7.07\001
4 0 0 50 -1 0 24 0.0000 4 285 210 6075 2475 5\001
4 0 0 50 -1 0 24 0.0000 4 285 525 5580 4725 2.5\001
4 0 0 50 -1 0 24 0.0000 4 270 480 5985 1305 M:\001
4 0 0 50 -1 0 24 0.0000 4 270 210 9270 1890 1\001
4 0 0 50 -1 0 24 0.0000 4 285 735 7605 4275 0.25\001
4 0 0 50 -1 0 24 0.0000 4 285 210 11835 2160 5\001
4 0 0 50 -1 0 24 0.0000 4 270 420 8460 1260 V:\001
4 0 0 50 -1 0 24 0.0000 4 270 375 11205 1440 T:\001
