#FIG 3.2  Produced by xfig version 3.2.6a
Landscape
Center
Metric
A4
100.00
Single
-2
1200 2
6 -1170 -135 3420 1215
1 3 0 1 0 7 50 -1 -1 0.000 1 0.0000 1125 0 100 100 1125 0 1225 0
2 1 0 3 0 7 50 -1 -1 8.000 0 0 -1 0 0 2
	 -1125 0 1035 0
2 1 0 3 0 7 50 -1 -1 8.000 0 0 -1 0 0 2
	 1215 0 3375 0
2 1 0 3 0 7 50 -1 -1 8.000 0 0 -1 0 0 2
	 0 0 0 1170
2 1 0 3 0 7 50 -1 -1 8.000 0 0 -1 0 0 2
	 2250 0 2250 1125
-6
6 5535 0 10125 1350
1 3 0 1 0 7 50 -1 -1 0.000 1 0.0000 7830 135 100 100 7830 135 7930 135
2 1 0 3 0 7 50 -1 -1 8.000 0 0 -1 0 0 2
	 5580 135 7740 135
2 1 0 3 0 7 50 -1 -1 8.000 0 0 -1 0 0 2
	 7920 135 10080 135
2 1 0 3 0 7 50 -1 -1 8.000 0 0 -1 0 0 2
	 6705 135 6705 1305
2 1 0 3 0 7 50 -1 -1 8.000 0 0 -1 0 0 2
	 8955 135 8955 1260
-6
6 5535 3915 10125 5265
1 3 0 1 0 7 50 -1 -1 0.000 1 0.0000 7830 4050 100 100 7830 4050 7930 4050
2 1 0 3 0 7 50 -1 -1 8.000 0 0 -1 0 0 2
	 5580 4050 7740 4050
2 1 0 3 0 7 50 -1 -1 8.000 0 0 -1 0 0 2
	 7920 4050 10080 4050
2 1 0 3 0 7 50 -1 -1 8.000 0 0 -1 0 0 2
	 6705 4050 6705 5220
2 1 0 3 0 7 50 -1 -1 8.000 0 0 -1 0 0 2
	 8955 4050 8955 5175
-6
6 5625 6300 10215 7650
1 3 0 1 0 7 50 -1 -1 0.000 1 0.0000 7920 6435 100 100 7920 6435 8020 6435
2 1 0 3 0 7 50 -1 -1 8.000 0 0 -1 0 0 2
	 5670 6435 7830 6435
2 1 0 3 0 7 50 -1 -1 8.000 0 0 -1 0 0 2
	 8010 6435 10170 6435
2 1 0 3 0 7 50 -1 -1 8.000 0 0 -1 0 0 2
	 6795 6435 6795 7605
2 1 0 3 0 7 50 -1 -1 8.000 0 0 -1 0 0 2
	 9045 6435 9045 7560
-6
2 1 0 1 0 7 50 -1 -1 4.000 0 0 -1 0 0 2
	 -1125 1350 -1125 1935
2 1 0 1 0 7 50 -1 -1 4.000 0 0 -1 0 0 2
	 0 1530 0 1890
2 1 0 1 0 7 50 -1 -1 4.000 0 0 -1 0 0 2
	 1125 1350 1125 1935
2 1 0 1 0 7 50 -1 -1 4.000 0 0 -1 0 0 2
	 2250 1530 2250 1890
2 1 0 1 0 7 50 -1 -1 4.000 0 0 -1 0 0 2
	 3375 1305 3375 1890
2 1 0 1 0 7 50 -1 -1 4.000 0 0 -1 0 0 2
	 3690 0 4275 0
2 1 0 1 0 7 50 -1 -1 4.000 0 0 -1 1 1 2
	1 1 1.00 60.00 120.00
	1 1 1.00 60.00 120.00
	 -1125 1755 0 1755
2 1 0 1 0 7 50 -1 -1 4.000 0 0 -1 1 1 2
	1 1 1.00 60.00 120.00
	1 1 1.00 60.00 120.00
	 0 1755 1125 1755
2 1 0 1 0 7 50 -1 -1 4.000 0 0 -1 1 1 2
	1 1 1.00 60.00 120.00
	1 1 1.00 60.00 120.00
	 1125 1755 2250 1755
2 1 0 1 0 7 50 -1 -1 4.000 0 0 -1 1 1 2
	1 1 1.00 60.00 120.00
	1 1 1.00 60.00 120.00
	 2250 1755 3375 1755
2 1 0 1 0 7 50 -1 -1 4.000 0 0 -1 1 1 2
	1 1 1.00 60.00 120.00
	1 1 1.00 60.00 120.00
	 4185 1215 4185 0
2 1 0 1 0 7 50 -1 -1 4.000 0 0 -1 0 0 2
	 3690 1170 4275 1170
2 3 0 1 0 7 50 -1 -1 4.000 0 0 -1 0 0 4
	 0 1125 -135 1395 135 1395 0 1125
2 3 0 1 0 7 50 -1 -1 4.000 0 0 -1 0 0 4
	 2250 1125 2115 1395 2385 1395 2250 1125
2 1 1 1 0 7 50 -1 -1 4.000 0 0 -1 0 0 2
	 0 2025 0 7965
2 1 1 1 0 7 50 -1 -1 4.000 0 0 -1 0 0 2
	 -1080 2025 -1080 7965
2 1 1 1 0 7 50 -1 -1 4.000 0 0 -1 0 0 2
	 1125 2025 1125 7965
2 1 1 1 0 7 50 -1 -1 4.000 0 0 -1 0 0 2
	 2250 2025 2250 7965
2 1 1 1 0 7 50 -1 -1 4.000 0 0 -1 0 0 2
	 3375 2025 3375 7965
2 1 0 1 0 7 50 -1 -1 4.000 0 0 -1 0 0 2
	 -1080 2835 3375 2835
2 1 0 1 0 7 50 -1 -1 4.000 0 0 -1 0 0 2
	 -1080 2295 3375 3015
2 1 0 1 0 7 50 -1 -1 4.000 0 0 -1 0 0 2
	 -1080 3600 3375 3600
2 1 0 1 0 7 50 -1 -1 4.000 0 0 -1 0 0 3
	 -1080 3825 1170 3330 3420 3870
2 1 0 1 0 7 50 -1 -1 4.000 0 0 -1 0 0 2
	 -1080 4860 3375 4860
2 1 0 1 0 7 50 -1 -1 4.000 0 0 -1 1 0 2
	1 1 1.00 60.00 120.00
	 7830 3420 7830 3960
2 1 0 1 0 7 50 -1 -1 4.000 0 0 -1 1 0 2
	1 1 1.00 60.00 120.00
	 6705 5760 6705 5310
2 1 0 1 0 7 50 -1 -1 4.000 0 0 -1 1 0 2
	1 1 1.00 60.00 120.00
	 6120 5220 6570 5220
2 1 0 1 0 7 50 -1 -1 4.000 0 0 -1 0 0 2
	 6705 5220 6345 4050
2 1 0 1 0 7 50 -1 -1 4.000 0 0 -1 0 0 5
	 6705 4050 6705 3600 7830 4050 8955 3600 8910 4050
2 1 0 1 0 7 50 -1 -1 4.000 0 0 -1 0 0 2
	 9360 4050 8955 5130
2 1 0 1 0 7 50 -1 -1 4.000 0 0 -1 0 0 2
	 1125 5265 3420 4455
2 1 0 1 0 7 50 -1 -1 4.000 0 0 -1 0 0 2
	 45 -225 45 225
2 1 0 1 0 7 50 -1 -1 4.000 0 0 -1 1 0 2
	1 1 1.00 60.00 120.00
	 5670 5850 5670 6390
2 1 0 1 0 7 50 -1 -1 4.000 0 0 -1 1 0 2
	1 1 1.00 60.00 120.00
	 6795 8100 6795 7650
2 1 0 1 0 7 50 -1 -1 4.000 0 0 -1 1 0 2
	1 1 1.00 60.00 120.00
	 8955 5760 8955 5310
2 1 0 1 0 7 50 -1 -1 4.000 0 0 -1 1 0 2
	1 1 1.00 60.00 120.00
	 9045 7650 9045 8100
2 1 0 1 0 7 50 -1 -1 4.000 0 0 -1 1 0 3
	1 1 1.00 60.00 120.00
	 9495 5130 9090 5130 9045 5130
2 1 0 1 0 7 50 -1 -1 4.000 0 0 -1 1 0 2
	1 1 1.00 60.00 120.00
	 9180 7560 9630 7560
2 1 0 1 0 7 50 -1 -1 4.000 0 0 -1 1 0 3
	1 1 1.00 60.00 120.00
	 6705 7605 6300 7605 6255 7605
2 1 0 1 0 7 50 -1 -1 4.000 0 0 -1 0 0 2
	 6795 7605 7065 6435
2 1 0 1 0 7 50 -1 -1 4.000 0 0 -1 0 0 3
	 5670 6435 6795 5850 6795 6390
2 1 0 1 0 7 50 -1 -1 4.000 0 0 -1 0 0 2
	 8730 6435 9045 7560
2 1 0 1 0 7 50 -1 -1 4.000 0 0 -1 0 0 2
	 9045 6660 6750 6165
2 1 0 1 0 7 50 -1 -1 4.000 0 0 -1 0 0 3
	 1125 5265 0 4860 -1125 5265
2 1 0 1 0 7 50 -1 -1 4.000 0 0 -1 0 0 2
	 -1080 6435 3375 6435
2 1 0 1 0 7 50 -1 -1 4.000 0 0 -1 0 0 4
	 0 6435 0 6075 3375 6615 3375 6435
2 1 0 1 0 7 50 -1 -1 4.000 0 0 -1 0 0 2
	 0 6435 -1125 6255
2 1 0 1 0 7 50 -1 -1 4.000 0 0 -1 0 0 2
	 -1080 7560 3375 7560
2 1 0 1 0 7 50 -1 -1 4.000 0 0 -1 0 0 2
	 -1080 7380 1125 7740
2 1 0 1 0 7 50 -1 -1 4.000 0 0 -1 0 0 2
	 1125 7380 3375 7740
4 0 0 50 -1 0 24 0.0000 4 285 210 -675 1710 5\001
4 0 0 50 -1 0 24 0.0000 4 285 210 585 1710 5\001
4 0 0 50 -1 0 24 0.0000 4 285 210 1665 1710 5\001
4 0 0 50 -1 0 24 0.0000 4 285 210 2745 1710 5\001
4 0 0 50 -1 0 24 1.5708 4 285 210 4140 720 5\001
4 0 0 50 -1 0 24 0.0000 4 270 300 180 1260 A\001
4 0 0 50 -1 0 24 0.0000 4 270 270 2430 1215 B\001
4 0 0 50 -1 0 24 0.0000 4 270 270 945 360 C\001
4 0 0 50 -1 0 24 0.0000 4 270 210 45 2520 1\001
4 0 0 50 -1 0 24 0.0000 4 285 525 -990 2250 1.5\001
4 0 0 50 -1 32 24 0.0000 4 300 240 4635 4680 h\001
4 0 0 50 -1 32 24 0.0000 4 300 240 -1710 2745 h\001
4 0 0 50 -1 0 24 0.0000 4 270 300 -1485 2700 A\001
4 0 0 50 -1 0 18 0.0000 4 135 150 4275 1890 x\001
4 0 0 50 -1 0 18 0.0000 4 195 150 4905 1890 y\001
4 0 0 50 -1 0 18 0.0000 4 195 150 -1215 2700 y\001
4 0 0 50 -1 32 24 0.0000 4 300 240 -1755 3645 h\001
4 0 0 50 -1 0 24 0.0000 4 270 300 -1530 3600 A\001
4 0 0 50 -1 0 18 0.0000 4 135 150 -1260 3690 x\001
4 0 0 50 -1 0 18 0.0000 4 210 375 1305 3375 0.5\001
4 0 0 50 -1 0 18 0.0000 4 210 480 -990 4050 -0.5\001
4 0 0 50 -1 0 18 0.0000 4 210 480 2790 4095 -0.5\001
4 0 0 50 -1 0 18 0.0000 4 210 375 6795 5715 0.5\001
4 0 0 50 -1 0 18 0.0000 4 210 375 5940 5535 0.5\001
4 0 0 50 -1 0 18 0.0000 4 210 375 9000 5715 0.5\001
4 0 0 50 -1 0 18 0.0000 4 210 375 9315 5355 0.5\001
4 0 0 50 -1 0 18 0.0000 4 210 375 6075 3915 2.5\001
4 0 0 50 -1 0 18 0.0000 4 210 375 9000 3960 2.5\001
4 0 0 50 -1 0 18 0.0000 4 195 150 7875 3600 1\001
4 0 0 50 -1 0 24 0.0000 4 270 480 7110 3420 M:\001
4 0 0 50 -1 0 18 0.0000 4 210 480 1260 5400 -2.5\001
4 0 0 50 -1 0 18 0.0000 4 210 375 2880 4500 2.5\001
4 0 0 50 -1 32 24 0.0000 4 360 600 -1935 4950 hM\001
4 0 0 50 -1 0 24 0.0000 4 270 210 90 405 d\001
4 0 0 50 -1 0 18 0.0000 4 195 150 5715 5985 1\001
4 0 0 50 -1 0 18 0.0000 4 210 375 6930 7965 1.5\001
4 0 0 50 -1 0 18 0.0000 4 210 375 9180 7920 0.5\001
4 0 0 50 -1 0 18 0.0000 4 210 375 6300 7515 0.5\001
4 0 0 50 -1 0 24 0.0000 4 270 480 7425 5985 M:\001
4 0 0 50 -1 0 24 0.0000 4 270 300 -315 315 D\001
4 0 0 50 -1 0 24 0.0000 4 270 255 1935 360 E\001
4 0 0 50 -1 0 18 0.0000 4 210 150 6840 6075 5\001
4 0 0 50 -1 0 18 0.0000 4 210 375 7065 6840 2.5\001
4 0 0 50 -1 0 18 0.0000 4 210 375 8415 6885 2.5\001
4 0 0 50 -1 0 18 0.0000 4 210 375 6435 6300 2.5\001
4 0 0 50 -1 0 18 0.0000 4 210 480 -1035 5490 -2.5\001
4 0 0 50 -1 32 24 0.0000 4 300 240 -1890 6435 h\001
4 0 0 50 -1 0 24 0.0000 4 270 300 -1710 6435 V\001
4 0 0 50 -1 0 24 0.0000 4 270 210 -1485 6525 d\001
4 0 0 50 -1 0 24 0.0000 4 270 210 -270 6075 1\001
4 0 0 50 -1 0 24 0.0000 4 285 525 -1125 6255 0.5\001
4 0 0 50 -1 32 24 0.0000 4 300 240 -1890 7650 h\001
4 0 0 50 -1 0 24 0.0000 4 270 300 -1710 7605 V\001
4 0 0 50 -1 0 24 0.0000 4 270 270 -1485 7740 C\001
4 0 0 50 -1 0 24 0.0000 4 285 525 -1125 7335 0.5\001
4 0 0 50 -1 0 24 0.0000 4 285 525 1125 7335 0.5\001
4 0 0 50 -1 0 24 0.0000 4 285 660 1170 7830 -0.5\001
4 0 0 50 -1 0 24 0.0000 4 285 660 2700 8100 -0.5\001
