#FIG 3.2  Produced by xfig version 3.2.6a
Landscape
Center
Metric
A4
100.00
Single
-2
1200 2
2 1 0 3 0 7 50 -1 -1 0.000 0 0 -1 0 0 3
	 0 4500 2250 2250 4500 4500
2 1 0 3 0 7 50 -1 -1 0.000 0 0 -1 0 0 2
	 2250 2250 2250 4500
2 1 0 1 0 7 50 -1 -1 0.000 0 0 -1 0 0 2
	 -540 4500 5670 4500
2 1 0 1 0 7 50 -1 -1 0.000 0 0 -1 0 0 2
	 -135 4500 -315 4725
2 1 0 1 0 7 50 -1 -1 0.000 0 0 -1 0 0 2
	 90 4500 -90 4725
2 1 0 1 0 7 50 -1 -1 0.000 0 0 -1 0 0 2
	 270 4500 90 4725
2 1 0 1 0 7 50 -1 -1 0.000 0 0 -1 0 0 2
	 2070 4500 1890 4725
2 1 0 1 0 7 50 -1 -1 0.000 0 0 -1 0 0 2
	 2250 4500 2070 4725
2 1 0 1 0 7 50 -1 -1 0.000 0 0 -1 0 0 2
	 2450 4498 2270 4723
2 1 0 1 0 7 50 -1 -1 0.000 0 0 -1 0 0 2
	 4340 4498 4160 4723
2 1 0 1 0 7 50 -1 -1 0.000 0 0 -1 0 0 2
	 4545 4455 4365 4680
2 1 0 1 0 7 50 -1 -1 0.000 0 0 -1 0 0 2
	 4714 4491 4534 4716
2 1 0 1 0 7 50 -1 -1 0.000 0 0 -1 0 0 2
	 0 4860 0 5490
2 1 0 1 0 7 50 -1 -1 0.000 0 0 -1 0 0 2
	 2250 4860 2250 5490
2 1 0 1 0 7 50 -1 -1 0.000 0 0 -1 0 0 2
	 4500 4860 4500 5490
2 1 0 1 0 7 50 -1 -1 0.000 0 0 -1 0 0 2
	 4725 2250 5400 2250
2 1 0 1 0 7 50 -1 -1 0.000 0 0 -1 1 1 2
	1 1 1.00 60.00 120.00
	1 1 1.00 60.00 120.00
	 0 5220 2250 5220
2 1 0 1 0 7 50 -1 -1 0.000 0 0 -1 1 1 2
	1 1 1.00 60.00 120.00
	1 1 1.00 60.00 120.00
	 2250 5220 4500 5220
2 1 0 1 0 7 50 -1 -1 0.000 0 0 -1 1 1 2
	1 1 1.00 60.00 120.00
	1 1 1.00 60.00 120.00
	 5310 4500 5310 2250
2 1 0 2 0 7 50 -1 -1 0.000 0 0 -1 1 0 2
	1 1 2.00 120.00 240.00
	 990 2250 2070 2250
4 0 0 50 -1 0 24 0.0000 4 270 210 2520 4860 1\001
4 0 0 50 -1 0 24 0.0000 4 270 210 270 4860 2\001
4 0 0 50 -1 0 24 0.0000 4 270 210 2430 2295 3\001
4 0 0 50 -1 0 24 0.0000 4 270 210 4635 4860 4\001
4 0 0 50 -1 0 24 0.0000 4 285 210 1080 5175 5\001
4 0 0 50 -1 0 24 0.0000 4 285 210 3240 5220 5\001
4 0 0 50 -1 0 24 1.5708 4 285 210 5220 3465 5\001
4 0 0 50 -1 0 24 0.0000 4 270 630 1080 2250 100\001
