#FIG 3.2  Produced by xfig version 3.2.6a
Landscape
Center
Metric
A4
100.00
Single
-2
1200 2
2 2 0 3 0 7 50 -1 -1 8.000 0 0 -1 0 0 5
	 0 0 4500 0 4500 -4500 0 -4500 0 0
2 1 1 3 0 7 50 -1 -1 8.000 0 0 -1 0 0 2
	 1575 -1395 3150 -1395
2 1 1 3 0 7 50 -1 -1 8.000 0 0 -1 0 0 2
	 1350 -1620 1350 -3195
2 1 1 3 0 7 50 -1 -1 8.000 0 0 -1 0 0 2
	 1575 -1575 2790 -2835
2 1 0 1 0 7 50 -1 -1 4.000 0 0 -1 0 0 2
	 0 180 0 945
2 1 0 1 0 7 50 -1 -1 4.000 0 0 -1 0 0 2
	 4500 180 4500 945
2 1 0 1 0 7 50 -1 -1 4.000 0 0 -1 0 0 2
	 4725 0 5580 0
2 1 0 1 0 7 50 -1 -1 4.000 0 0 -1 0 0 2
	 4725 -4500 5580 -4500
2 1 0 1 0 7 50 -1 -1 4.000 0 0 -1 1 1 2
	1 1 1.00 60.00 120.00
	1 1 1.00 60.00 120.00
	 0 765 4500 765
2 1 0 1 0 7 50 -1 -1 4.000 0 0 -1 1 1 2
	1 1 1.00 60.00 120.00
	1 1 1.00 60.00 120.00
	 5400 0 5400 -4500
2 1 0 3 0 7 50 -1 -1 8.000 0 0 -1 1 0 2
	1 1 1.00 60.00 120.00
	 2325 -4680 2325 -5820
2 1 0 3 0 7 50 -1 -1 8.000 0 0 -1 1 0 2
	1 1 1.00 60.00 120.00
	 2430 -4605 3675 -4605
2 1 0 3 0 7 50 -1 -1 8.000 0 0 -1 1 0 2
	1 1 1.00 60.00 120.00
	 4635 -2085 4635 -3315
4 0 0 50 -1 0 24 0.0000 4 270 210 1890 675 d\001
4 0 0 50 -1 1 24 0.0000 4 180 180 2100 660 x\001
4 0 0 50 -1 0 24 1.5708 4 270 210 5298 -1944 d\001
4 0 0 50 -1 1 24 1.5708 4 255 180 5295 -2130 y\001
4 0 0 50 -1 0 24 0.0000 4 270 210 2385 -5265 d\001
4 0 0 50 -1 1 24 0.0000 4 270 255 3270 -4770 F\001
4 0 0 50 -1 0 24 0.0000 4 270 210 3060 -4785 d\001
4 0 0 50 -1 0 24 0.0000 4 270 210 4650 -2610 d\001
4 0 0 50 -1 1 24 0.0000 4 270 255 4860 -2595 F\001
4 0 0 50 -1 1 24 0.0000 4 270 255 2610 -5265 F\001
4 0 0 50 -1 1 18 0.0000 4 195 135 2775 -5220 y\001
4 0 0 50 -1 1 18 0.0000 4 135 135 3435 -4710 x\001
4 0 0 50 -1 1 18 0.0000 4 195 135 4995 -2550 y\001
4 0 0 50 -1 1 18 0.0000 4 195 135 2910 -5220 y\001
4 0 0 50 -1 1 18 0.0000 4 195 135 3570 -4710 y\001
4 0 0 50 -1 1 18 0.0000 4 135 135 5130 -2565 x\001
4 0 0 50 -1 0 24 0.0000 4 270 945 2205 -1485 0.001\001
4 0 0 50 -1 0 24 0.7854 4 270 945 1980 -2115 0.001\001
4 0 0 50 -1 0 24 1.5708 4 285 1155 1260 -1710 0.0005\001
