#FIG 3.2
Landscape
Center
Metric
Letter  
100.00
Single
-2
1200 2
6 5040 5580 5670 5985
4 0 0 50 0 0 24 0.0000 4 255 270 5040 5850 N\001
4 0 0 50 0 0 16 0.0000 4 165 330 5310 5985 EA\001
-6
1 3 0 1 0 7 50 0 -1 0.000 1 0.0000 1800 3600 45 45 1800 3600 1845 3600
1 3 0 1 0 7 50 0 -1 0.000 1 0.0000 2700 4500 45 45 2700 4500 2745 4500
1 3 0 1 0 7 50 0 -1 0.000 1 0.0000 1890 2700 45 45 1890 2700 1935 2700
2 1 0 3 0 7 50 0 -1 0.000 0 0 -1 0 0 2
	 1800 1800 1800 3555
2 1 0 3 0 7 50 0 -1 0.000 0 0 -1 0 0 2
	 1800 3645 1800 5400
2 1 0 3 0 7 50 0 -1 0.000 0 0 -1 0 0 2
	 1800 4500 2655 4500
2 1 0 3 0 7 50 0 -1 0.000 0 0 -1 0 0 2
	 1935 2745 2700 4500
2 1 0 3 0 7 50 0 -1 0.000 0 0 -1 0 0 2
	 2700 4545 2700 5400
2 3 0 1 0 7 50 0 -1 0.000 0 0 -1 0 0 4
	 1710 5580 1800 5400 1890 5580 1710 5580
2 3 0 1 0 7 50 0 -1 0.000 0 0 -1 0 0 4
	 2610 5580 2700 5400 2790 5580 2610 5580
2 1 0 2 0 7 50 0 -1 0.000 0 0 -1 1 0 2
	1 1 2.00 120.00 240.00
	 900 3105 1755 3105
2 1 0 1 0 7 50 0 -1 0.000 0 0 -1 0 0 2
	 1395 3015 1395 2565
2 1 0 1 0 7 50 0 -1 0.000 0 0 -1 0 0 2
	 1395 3150 1395 3825
2 1 0 1 0 7 50 0 -1 0.000 0 0 -1 0 0 2
	 1620 1845 1125 1845
2 1 0 1 0 7 50 0 -1 0.000 0 0 -1 0 0 2
	 1575 2700 1125 2700
2 1 0 1 0 7 50 0 -1 0.000 0 0 -1 0 0 2
	 1620 3600 1125 3600
2 1 0 1 0 7 50 0 -1 0.000 0 0 -1 0 0 2
	 1665 5400 1170 5400
2 1 0 1 0 7 50 0 -1 0.000 0 0 -1 0 0 2
	 1800 5670 1800 6120
2 1 0 1 0 7 50 0 -1 0.000 0 0 -1 0 0 2
	 2700 5670 2700 6120
2 1 0 1 0 7 50 0 -1 0.000 0 0 -1 1 1 2
	1 1 1.00 60.00 120.00
	1 1 1.00 60.00 120.00
	 1800 5985 2700 5985
2 1 0 1 0 7 50 0 -1 0.000 0 0 -1 0 0 2
	 1665 4500 1170 4500
2 1 0 1 0 7 50 0 -1 0.000 0 0 -1 1 1 2
	1 1 1.00 60.00 120.00
	1 1 1.00 60.00 120.00
	 1260 5400 1260 1845
2 1 0 1 0 7 50 0 -1 0.000 0 0 -1 0 0 2
	 1800 1845 10485 1845
2 1 0 1 0 7 50 0 -1 0.000 0 0 -1 0 0 2
	 2880 3600 10530 3600
2 1 0 1 0 7 50 0 -1 0.000 0 0 -1 0 0 2
	 2925 4500 10575 4500
2 1 0 1 0 7 50 0 -1 0.000 0 0 -1 0 0 2
	 2970 5400 10620 5400
2 1 0 1 0 7 50 0 -1 0.000 0 0 -1 0 0 2
	 2115 2700 10530 2700
2 1 0 1 0 7 50 0 -1 0.000 0 0 -1 0 0 2
	 3510 5400 3510 1845
2 1 0 2 0 7 50 0 -1 0.000 0 0 -1 0 0 2
	 3735 5400 3735 1845
2 1 0 1 0 7 50 0 -1 0.000 0 0 -1 0 0 2
	 4365 5400 4365 1845
2 1 0 2 0 7 50 0 -1 0.000 0 0 -1 0 0 2
	 4365 5400 5085 1845
2 1 0 1 0 7 50 0 -1 0.000 0 0 -1 0 0 2
	 5805 5400 5805 1845
2 1 0 2 0 7 50 0 -1 0.000 0 0 -1 0 0 3
	 5625 1845 5625 4500 5805 4500
2 1 0 1 0 7 50 0 -1 0.000 0 0 -1 0 0 2
	 6750 5400 6750 1845
2 1 0 2 0 7 50 0 -1 0.000 0 0 -1 0 0 3
	 6300 1845 6300 4500 6750 4500
2 1 0 1 0 7 50 0 -1 0.000 0 0 -1 0 0 2
	 7560 5400 7560 1845
2 1 0 2 0 7 50 0 -1 0.000 0 0 -1 0 0 3
	 7380 4500 7380 3600 7740 1800
2 1 0 1 0 7 50 0 -1 0.000 0 0 -1 0 0 2
	 8505 5400 8505 1845
2 1 0 2 0 7 50 0 -1 0.000 0 0 -1 0 0 3
	 8505 4500 8820 3600 8145 1845
2 1 0 1 0 7 50 0 -1 0.000 0 0 -1 0 0 2
	 9585 5400 9585 1845
2 1 0 2 0 7 50 0 -1 0.000 0 0 -1 0 0 2
	 9000 1845 9585 3600
4 0 0 50 0 0 24 0.0000 4 255 180 2115 5940 2\001
4 0 0 50 0 0 24 1.5708 4 255 555 1215 4365 4x2\001
4 0 0 50 0 0 24 0.0000 4 255 390 3465 1800 -1\001
4 0 0 50 0 0 24 0.0000 4 255 390 4860 1800 -4\001
4 0 0 50 0 0 24 0.0000 4 255 180 5625 1800 1\001
4 0 0 50 0 0 24 0.0000 4 255 180 6435 1800 2\001
4 0 0 50 0 0 24 0.0000 4 255 390 8775 4185 -2\001
4 0 0 50 0 0 24 0.0000 4 255 180 8280 1800 2\001
4 0 0 50 0 0 24 0.0000 4 255 390 7605 1800 -1\001
4 0 0 50 0 0 24 0.0000 4 255 180 7380 4860 1\001
4 0 0 50 0 0 24 0.0000 4 255 180 9180 1800 4\001
4 0 0 50 0 0 24 0.0000 4 255 330 6615 5850 M\001
4 0 0 50 0 0 24 0.0000 4 255 330 8280 5850 M\001
4 0 0 50 0 0 24 0.0000 4 255 270 9360 5850 N\001
4 0 0 50 0 0 16 0.0000 4 165 330 6975 5985 EA\001
4 0 0 50 0 0 16 0.0000 4 165 315 8640 5985 EC\001
4 0 0 50 0 0 16 0.0000 4 165 315 9630 5985 EC\001
4 0 0 50 0 0 24 0.0000 4 255 255 7380 5850 V\001
4 0 0 50 0 0 16 0.0000 4 165 315 7560 5985 EC\001
4 0 0 50 0 0 24 0.0000 4 255 255 1530 5760 A\001
4 0 0 50 0 0 24 0.0000 4 255 225 1935 4860 E\001
4 0 0 50 0 0 24 0.0000 4 255 240 1935 3870 C\001
4 0 0 50 0 0 24 0.0000 4 255 255 2430 3690 D\001
4 0 0 50 0 0 32 0.0000 4 330 150 1530 4995 I\001
4 0 0 50 0 0 32 0.0000 4 330 300 1440 2520 II\001
4 0 0 50 0 0 24 0.0000 4 255 240 2745 5085 B\001
4 0 0 50 0 0 24 0.0000 4 255 255 3420 5850 A\001
4 0 0 50 0 0 16 0.0000 4 120 120 3690 5985 x\001
4 0 0 50 0 0 24 0.0000 4 255 1005 4005 5850 A =B=\001
4 0 0 50 0 0 24 0.0000 4 255 255 5670 5850 V\001
4 0 0 50 0 0 16 0.0000 4 165 330 5805 5985 EA\001
4 0 0 50 0 0 16 0.0000 4 180 120 4230 5985 y\001
