#FIG 3.2
Landscape
Center
Inches
Letter  
100.00
Single
-2
1200 2
6 1125 5700 7275 6900
2 1 0 1 0 7 100 0 -1 0.000 0 0 -1 0 0 2
	 1200 6825 7200 6825
2 1 0 2 0 7 100 0 -1 0.000 0 0 -1 0 0 2
	 1200 6825 7200 5775
4 0 0 100 0 0 24 0.0000 4 255 180 6150 6525 1\001
4 0 0 100 0 0 24 0.0000 4 255 240 3825 6150 B\001
4 0 0 100 0 32 24 0.0000 4 270 225 3600 6150 h\001
-6
6 1125 4050 7350 5250
2 1 0 1 0 7 100 0 -1 0.000 0 0 -1 0 0 2
	 1200 5025 7200 5025
2 1 0 2 0 7 100 0 -1 0.000 0 0 -1 0 0 2
	 1200 4093 7275 5218
-6
2 1 0 3 0 7 100 0 -1 0.000 0 0 -1 0 0 2
	 1200 2850 7200 2850
2 3 0 1 0 7 100 0 -1 0.000 0 0 -1 0 0 4
	 1050 3075 1200 2850 1350 3075 1050 3075
2 3 0 1 0 7 100 0 -1 0.000 0 0 -1 0 0 4
	 6000 3075 6150 2850 6300 3075 6000 3075
2 1 0 1 0 7 100 0 -1 0.000 0 0 -1 0 0 2
	 6000 3150 6300 3150
2 1 0 1 0 7 100 0 -1 0.000 0 0 -1 0 0 2
	 1200 3150 1200 6900
2 1 0 1 0 7 100 0 -1 0.000 0 0 -1 0 0 2
	 6150 3225 6150 6900
2 1 0 1 0 7 100 0 -1 0.000 0 0 -1 0 0 2
	 7200 3225 7200 6900
2 1 0 1 0 7 100 0 -1 0.000 0 0 -1 1 1 2
	1 1 1.00 60.00 120.00
	1 1 1.00 60.00 120.00
	 1200 3675 6150 3675
2 1 0 2 0 7 100 0 -1 0.000 0 0 -1 1 0 2
	1 1 2.00 120.00 240.00
	 2400 2100 2400 2775
2 1 0 1 0 7 100 0 -1 0.000 0 0 -1 1 0 2
	1 1 1.00 60.00 120.00
	 1200 2325 2400 2325
2 1 0 1 0 7 100 0 -1 0.000 0 0 -1 0 0 2
	 1200 2775 1200 2100
4 0 0 100 0 0 24 0.0000 4 255 180 2550 2475 1\001
4 0 0 100 0 0 24 0.0000 4 255 90 3300 3600 l\001
4 0 0 100 0 0 24 0.0000 4 180 195 1650 2250 x\001
4 0 0 100 0 0 24 0.0000 4 255 255 1500 3300 A\001
4 0 0 100 0 0 24 0.0000 4 255 240 5700 3375 B\001
4 0 0 100 0 0 16 0.0000 4 180 120 4050 4425 y\001
4 0 0 100 0 0 24 0.0000 4 255 255 3750 4350 A\001
4 0 0 100 0 32 24 0.0000 4 270 225 3525 4350 h\001
4 0 0 100 0 0 24 0.0000 4 255 180 1275 4725 1\001
