#FIG 3.2
Landscape
Center
Inches
Letter  
100.00
Single
-2
1200 2
2 1 0 1 0 7 50 0 -1 0.000 0 0 -1 1 0 2
	1 1 1.00 60.00 120.00
	 3600 4800 1575 5925
2 1 0 1 0 7 50 0 -1 0.000 0 0 -1 1 0 2
	1 1 1.00 60.00 120.00
	 3600 4800 6450 4800
2 1 0 1 0 7 50 0 -1 0.000 0 0 -1 1 0 2
	1 1 1.00 60.00 120.00
	 3600 4800 3600 1650
2 1 0 1 0 7 50 0 -1 0.000 0 0 -1 0 0 7
	 3600 2400 6000 2400 6000 4800 4575 5625 2100 5625 2100 3000
	 3600 2400
2 1 0 1 0 7 50 0 -1 0.000 0 0 -1 0 0 3
	 2100 3000 4575 3000 6000 2400
2 1 0 1 0 7 50 0 -1 0.000 0 0 -1 0 0 2
	 4575 3000 4575 5625
2 1 0 2 0 7 50 0 -1 0.000 0 0 -1 1 0 2
	1 1 2.00 120.00 240.00
	 3450 4275 4500 4275
2 1 0 2 0 7 50 0 -1 0.000 0 0 -1 1 0 2
	1 1 2.00 120.00 240.00
	 3450 4275 3450 3300
2 1 0 2 0 7 50 0 -1 0.000 0 0 -1 1 0 2
	1 1 2.00 120.00 240.00
	 5325 3975 5325 2925
2 1 0 2 0 7 50 0 -1 0.000 0 0 -1 1 0 2
	1 1 2.00 120.00 240.00
	 3600 4800 5325 1725
2 1 1 1 0 7 50 0 -1 4.000 0 0 -1 0 0 2
	 3600 2400 5025 1800
2 1 1 1 0 7 50 0 -1 4.000 0 0 -1 0 0 2
	 5025 1800 5025 4125
2 1 0 2 0 7 50 0 -1 6.000 0 0 -1 1 0 2
	1 1 2.00 120.00 240.00
	 3600 4800 5025 1800
2 1 1 1 0 7 50 0 -1 4.000 0 0 -1 0 0 2
	 5025 4050 7350 4050
2 1 1 1 0 7 50 0 -1 4.000 0 0 -1 0 0 2
	 3601 4803 5025 4050
2 1 1 1 0 7 50 0 -1 4.000 0 0 -1 0 0 2
	 6064 4777 7350 4050
2 1 0 2 0 7 50 0 -1 6.000 0 0 -1 1 0 2
	1 1 2.00 120.00 240.00
	 3600 4800 7350 4050
4 0 0 50 0 32 32 0.0000 4 255 285 2850 3675 s\001
4 0 0 50 0 32 32 0.0000 4 255 285 5400 3450 s\001
4 0 0 50 0 1 24 0.0000 4 240 315 5625 3525 yz\001
4 0 0 50 0 1 24 0.0000 4 165 315 3075 3825 xz\001
4 0 0 50 0 1 24 0.0000 4 165 150 3750 1800 z\001
4 0 0 50 0 1 24 0.0000 4 240 165 6225 5100 y\001
4 0 0 50 0 1 24 0.0000 4 165 165 1725 5700 x\001
4 0 0 50 0 32 32 0.0000 4 255 285 4125 4125 s\001
4 0 0 50 0 1 24 0.0000 4 240 330 4350 4200 xy\001
4 0 0 50 0 32 32 0.0000 4 255 285 5400 2025 s\001
4 0 0 50 0 32 32 0.0000 4 255 285 4650 1725 s\001
4 0 0 50 0 32 32 0.0000 4 255 285 6900 4575 s\001
4 0 0 50 0 1 18 0.0000 4 195 135 5625 2100 1\001
4 0 0 50 0 1 18 0.0000 4 195 135 4875 1800 2\001
4 0 0 50 0 1 18 0.0000 4 195 135 7125 4650 3\001
