#FIG 3.2  Produced by xfig version 3.2.5c
Landscape
Center
Inches
Letter  
100.00
Single
-2
1200 2
6 4999 1689 8640 4725
2 2 0 1 0 7 50 -1 -1 0.000 0 0 -1 0 0 5
	 6124 3900 8599 3900 8599 1725 6124 1725 6124 3900
2 1 0 1 0 7 50 -1 -1 0.000 0 0 -1 0 0 2
	 4999 4725 6124 3900
2 1 0 1 0 7 50 -1 -1 0.000 0 0 -1 0 0 2
	 5028 2514 6153 1689
2 2 0 1 0 7 50 -1 -1 0.000 0 0 -1 0 0 5
	 4999 4725 7474 4725 7474 2550 4999 2550 4999 4725
2 1 0 1 0 7 50 -1 -1 0.000 0 0 -1 0 0 2
	 7515 2530 8640 1705
2 1 0 1 0 7 50 -1 -1 0.000 0 0 -1 0 0 2
	 7515 4705 8640 3880
2 1 1 1 0 7 50 -1 -1 4.000 0 0 -1 0 0 2
	 4999 2550 7474 4725
2 1 1 1 0 7 50 -1 -1 4.000 0 0 -1 0 0 2
	 4999 4725 7474 2550
-6
2 1 0 1 0 7 50 -1 -1 0.000 0 0 -1 1 0 2
	1 1 1.00 60.00 120.00
	 4425 4125 2610 5430
2 1 0 1 0 7 50 -1 -1 0.000 0 0 -1 1 0 2
	1 1 1.00 60.00 120.00
	 4425 4125 4425 375
2 1 0 1 0 7 50 -1 -1 0.000 0 0 -1 1 0 2
	1 1 1.00 60.00 120.00
	 4425 4125 9300 4155
2 1 0 1 0 7 50 -1 -1 0.000 0 0 -1 1 0 2
	1 1 1.00 60.00 120.00
	 6260 3614 4065 5205
2 1 0 1 0 7 50 -1 -1 4.000 0 0 -1 1 0 2
	1 1 1.00 60.00 120.00
	 6240 3645 3225 1725
2 1 1 1 0 7 50 -1 -1 4.000 0 0 -1 0 0 4
	 6240 3630 4605 3630 3270 4545 3240 1725
2 1 1 3 0 7 50 -1 -1 4.000 0 0 -1 0 0 2
	 6240 780 6240 3630
2 1 1 3 0 7 50 -1 -1 8.000 0 0 -1 0 0 2
	 4650 3690 6255 3675
2 1 1 3 0 7 50 -1 -1 8.000 0 0 -1 0 0 2
	 6255 3600 5175 4380
4 0 0 50 -1 1 24 0.0000 4 210 165 4485 765 z\001
4 0 0 50 -1 3 24 0.0000 4 180 225 4275 5415 n\001
4 0 0 50 -1 3 24 0.0000 4 375 135 3630 1830 f\001
4 0 0 50 -1 1 24 0.0000 4 375 120 2910 3180 f\001
4 0 0 50 -1 1 24 0.0000 4 375 120 3915 3885 f\001
4 0 0 50 -1 3 18 0.0000 4 135 150 3990 4020 x\001
4 0 0 50 -1 3 18 0.0000 4 165 120 3000 3330 z\001
4 0 0 50 -1 1 24 0.0000 4 375 120 5175 3495 f\001
4 0 0 50 -1 3 18 0.0000 4 195 135 5295 3615 y\001
4 0 0 50 -1 32 24 0.0000 4 195 240 6285 1365 s\001
4 0 0 50 -1 32 24 0.0000 4 195 240 5010 3960 s\001
4 0 0 50 -1 32 24 0.0000 4 195 240 5610 4350 s\001
4 0 0 50 -1 1 18 0.0000 4 195 270 5205 4035 xy\001
4 0 0 50 -1 1 18 0.0000 4 150 255 6480 1440 xz\001
4 0 0 50 -1 1 18 0.0000 4 135 270 5790 4440 xx\001
4 0 0 50 -1 1 24 0.0000 4 180 180 2790 5565 x\001
4 0 0 50 -1 1 24 0.0000 4 255 180 9045 4470 y\001
