#FIG 3.2  Produced by xfig version 3.2.5c
Landscape
Center
Inches
Letter  
100.00
Single
-2
1200 2
2 3 0 1 0 7 50 -1 -1 0.000 0 0 -1 0 0 4
	 0 0 0 -4800 4800 -4800 0 0
2 1 0 1 0 7 50 -1 -1 0.000 0 0 -1 0 0 2
	 5175 0 6150 0
2 1 0 1 0 7 50 -1 -1 0.000 0 0 -1 0 0 2
	 5100 -4800 6075 -4800
2 1 0 1 0 7 50 -1 -1 0.000 0 0 -1 0 0 2
	 0 300 0 975
2 1 0 1 0 7 50 -1 -1 0.000 0 0 -1 1 1 2
	1 1 1.00 60.00 120.00
	1 1 1.00 60.00 120.00
	 0 750 4800 750
2 1 0 1 0 7 50 -1 -1 0.000 0 0 -1 1 1 2
	1 1 1.00 60.00 120.00
	1 1 1.00 60.00 120.00
	 5850 0 5850 -4800
2 3 0 1 0 7 50 -1 -1 0.000 0 0 -1 0 0 4
	 -375 -5025 -375 -4575 0 -4800 -375 -5025
2 3 0 1 0 7 50 -1 -1 0.000 0 0 -1 0 0 4
	 -450 150 -132 468 -26 44 -450 150
2 1 0 1 0 7 50 -1 -1 0.000 0 0 -1 0 0 2
	 4800 300 4800 975
2 3 0 1 0 7 50 -1 -1 0.000 0 0 -1 0 0 4
	 0 0 4800 0 4800 -4800 0 0
2 3 0 1 0 7 50 -1 -1 0.000 0 0 -1 0 0 4
	 4575 375 5025 375 4800 0 4575 375
2 1 0 3 0 7 50 -1 -1 0.000 0 0 -1 1 0 2
	1 1 3.00 180.00 360.00
	 4800 -4875 4800 -5625
2 3 0 1 0 7 50 -1 -1 0.000 0 0 -1 0 0 4
	 7575 0 7575 -4800 12375 -4800 7575 0
2 1 0 3 0 7 50 -1 -1 0.000 0 0 -1 0 0 2
	 10950 -150 10950 -3150
2 3 0 1 0 7 50 -1 -1 0.000 0 0 -1 0 0 4
	 7575 0 12375 0 12375 -4800 7575 0
2 1 0 3 0 7 50 -1 -1 0.000 0 0 -1 0 0 2
	 8850 -2850 9486 -3486
2 1 0 3 0 7 50 -1 -1 0.000 0 0 -1 0 0 2
	 8851 -3448 9487 -2812
2 1 0 3 0 7 50 -1 -1 0.000 0 0 -1 0 0 2
	 10500 -1725 11400 -1725
4 0 0 50 -1 0 24 0.0000 4 270 210 0 375 1\001
4 0 0 50 -1 0 24 0.0000 4 270 210 2175 675 1\001
4 0 0 50 -1 0 24 1.5708 4 270 210 5700 -2175 1\001
4 0 0 50 -1 1 24 0.0000 4 270 255 5025 -5400 F\001
4 0 0 50 -1 0 24 0.0000 4 270 210 4350 -4950 4\001
4 0 0 50 -1 0 24 0.0000 4 270 210 75 -4950 3\001
4 0 0 50 -1 0 24 0.0000 4 270 210 4275 375 2\001
4 0 0 50 -1 0 24 0.0000 4 270 210 5175 -5250 4\001
4 0 0 50 -1 32 24 0.0000 4 195 240 11025 -2700 s\001
4 0 0 50 -1 1 18 0.0000 4 195 150 11325 -2625 1\001
4 0 0 50 -1 1 18 0.0000 4 195 150 11475 -2100 2\001
4 0 0 50 -1 32 24 0.0000 4 195 240 11175 -1425 s\001
4 0 0 50 -1 1 18 0.0000 4 195 150 11400 -1275 2\001
4 0 0 50 -1 32 24 0.0000 4 195 240 9450 -3225 s\001
4 0 0 50 -1 1 18 0.0000 4 195 150 9675 -3150 1\001
4 0 0 50 -1 32 24 0.0000 4 195 240 9225 -2550 s\001
4 0 0 50 -1 1 18 0.0000 4 195 150 9450 -2400 2\001
