#FIG 3.2
Landscape
Center
Metric
A4      
100.00
Single
-2
1200 2
5 1 0 1 0 7 50 0 -1 4.000 0 1 1 0 4384.167 2930.833 6660 3150 6615 2430 6345 1755
	1 1 1.00 60.00 120.00
6 1845 360 8055 3195
2 1 0 2 0 7 50 0 -1 6.000 0 0 -1 1 0 2
	1 1 2.00 120.00 240.00
	 3876 3144 7578 1007
2 1 0 2 0 7 50 0 -1 6.000 0 0 -1 1 0 2
	1 1 2.00 120.00 240.00
	 3876 3144 2301 416
4 0 0 50 0 1 32 0.5236 4 435 1290 6812 2021 (x,u,N)\001
4 0 0 50 0 1 32 2.0944 4 435 1245 2764 1760 (y,v,Y)\001
4 0 0 50 0 1 26 2.0944 4 270 90 2313 617 l\001
4 0 0 50 0 1 26 0.5236 4 270 90 7971 1508 l\001
-6
2 1 0 2 0 7 50 0 -1 6.000 0 0 -1 1 0 2
	1 1 2.00 120.00 240.00
	 1800 3555 6075 3555
2 1 0 2 0 7 50 0 -1 6.000 0 0 -1 1 0 2
	1 1 2.00 120.00 240.00
	 1800 3555 1800 405
2 1 0 1 0 7 50 0 -1 4.000 0 0 -1 1 0 2
	1 1 1.00 60.00 120.00
	 3870 3150 7695 3150
2 1 0 4 0 7 50 0 -1 0.000 0 0 -1 0 0 2
	 3870 3150 5895 1980
4 0 0 50 0 1 32 0.0000 4 435 1290 4905 4050 (x,u,N)\001
4 0 0 50 0 1 26 1.5708 4 270 195 1710 405 g\001
4 0 0 50 0 1 26 0.0000 4 270 195 6165 4140 g\001
4 0 0 50 0 1 32 1.5708 4 435 1245 1620 1710 (y,v,Y)\001
4 0 0 50 0 32 26 0.0000 4 210 255 5715 2790 a\001
4 0 0 50 0 1 32 0.5236 4 315 135 3915 2880 i\001
4 0 0 50 0 1 32 0.5236 4 420 120 5693 1896 j\001
