#FIG 3.2  Produced by xfig version 3.2.6a
Landscape
Center
Metric
A4
100.00
Single
-2
1200 2
1 4 0 1 0 7 50 -1 -1 4.000 1 0.0000 5445 2250 81 81 5400 2318 5490 2183
2 1 0 3 0 7 50 -1 -1 8.000 0 0 -1 0 0 2
	 1800 2250 5400 2250
2 1 0 1 0 7 50 -1 -1 4.000 0 0 -1 0 0 2
	 1800 1845 1800 2700
2 1 0 1 0 7 50 -1 -1 4.000 0 0 -1 0 0 2
	 5535 1845 5535 2700
2 1 0 1 0 7 50 -1 -1 4.000 0 0 -1 0 0 2
	 1800 2880 1800 3510
2 1 0 1 0 7 50 -1 -1 4.000 0 0 -1 0 0 2
	 5535 2880 5535 3510
2 1 0 1 0 7 50 -1 -1 4.000 0 0 -1 1 1 2
	1 1 1.00 60.00 120.00
	1 1 1.00 60.00 120.00
	 1800 3240 5535 3240
2 2 0 1 0 7 50 -1 50 4.000 0 0 -1 0 0 5
	 1800 2205 5490 2205 5490 1890 1800 1890 1800 2205
2 1 0 1 0 7 50 -1 -1 4.000 0 0 -1 0 0 4
	 4590 1710 4635 1890 4815 1440 5355 1440
2 1 0 2 0 7 50 -1 -1 6.000 0 0 -1 1 0 2
	1 1 2.00 120.00 240.00
	 3600 810 3600 2250
2 1 1 1 0 7 50 -1 -1 4.000 0 0 -1 1 0 2
	1 1 1.00 60.00 120.00
	 1845 2340 5445 2340
4 0 0 50 -1 1 24 0.0000 4 285 210 3420 3195 8\001
4 0 0 50 -1 0 24 0.0000 4 270 210 1890 2700 1\001
4 0 0 50 -1 0 24 0.0000 4 270 210 5265 2790 2\001
4 0 0 50 -1 0 24 0.0000 4 285 885 4815 1440 f=0.5\001
4 0 0 50 -1 0 24 0.0000 4 270 210 3690 1305 4\001
4 0 0 50 -1 32 24 0.0000 4 285 255 2970 2610 D\001
4 0 0 50 -1 1 24 0.0000 4 225 120 3240 2565 t\001
