#FIG 3.2  Produced by xfig version 3.2.6a
Landscape
Center
Metric
A4
100.00
Single
-2
1200 2
6 -180 -315 7245 2700
2 1 0 3 0 7 50 -1 -1 0.000 0 0 -1 0 0 2
	 0 0 7200 0
2 1 0 3 0 7 50 -1 -1 0.000 0 0 -1 0 0 3
	 0 0 1800 2565 3600 0
2 1 0 3 0 7 50 -1 -1 0.000 0 0 -1 0 0 3
	 3619 -13 5419 2552 7219 -13
2 1 0 3 0 7 50 -1 -1 0.000 0 0 -1 0 0 4
	 1800 -45 900 1305 2655 1305 1800 0
2 1 0 3 0 7 50 -1 -1 0.000 0 0 -1 0 0 4
	 5442 -17 4542 1333 6297 1333 5442 28
4 0 0 50 -1 0 20 0.0000 4 225 165 1395 2700 1\001
4 0 0 50 -1 0 20 0.0000 4 225 165 675 1530 2\001
4 0 0 50 -1 0 20 0.0000 4 225 165 2700 1575 3\001
4 0 0 50 -1 0 20 0.0000 4 225 165 -180 270 4\001
4 0 0 50 -1 0 20 0.0000 4 240 165 1755 -45 5\001
4 0 0 50 -1 0 20 0.0000 4 225 165 3420 -90 6\001
-6
2 3 0 1 0 7 50 -1 -1 0.000 0 0 -1 0 0 4
	 1800 2565 1575 2880 1980 2880 1800 2565
2 3 0 1 0 7 50 -1 -1 0.000 0 0 -1 0 0 4
	 5400 2565 5175 2880 5580 2880 5400 2565
2 1 0 1 0 7 50 -1 -1 0.000 0 0 -1 0 0 2
	 0 2790 0 3690
2 1 0 1 0 7 50 -1 -1 0.000 0 0 -1 0 0 2
	 900 3240 900 3645
2 1 0 1 0 7 50 -1 -1 0.000 0 0 -1 0 0 2
	 1800 3240 1800 3645
2 1 0 1 0 7 50 -1 -1 0.000 0 0 -1 0 0 2
	 2700 3240 2700 3645
2 1 0 1 0 7 50 -1 -1 0.000 0 0 -1 0 0 2
	 2700 3240 2700 3645
2 1 0 1 0 7 50 -1 -1 0.000 0 0 -1 0 0 2
	 3600 2790 3600 3690
2 1 0 1 0 7 50 -1 -1 0.000 0 0 -1 0 0 2
	 4500 3240 4500 3645
2 1 0 1 0 7 50 -1 -1 0.000 0 0 -1 0 0 2
	 5400 3240 5400 3645
2 1 0 1 0 7 50 -1 -1 0.000 0 0 -1 0 0 2
	 6300 3195 6300 3600
2 1 0 1 0 7 50 -1 -1 0.000 0 0 -1 0 0 2
	 7200 2745 7200 3645
2 1 0 1 0 7 50 -1 -1 0.000 0 0 -1 0 0 2
	 7515 0 8235 0
2 1 0 1 0 7 50 -1 -1 0.000 0 0 -1 0 0 2
	 7380 1305 8280 1305
2 1 0 1 0 7 50 -1 -1 0.000 0 0 -1 0 0 2
	 7020 2565 8325 2565
2 1 0 1 0 7 50 -1 -1 0.000 0 0 -1 1 1 2
	1 1 1.00 60.00 120.00
	1 1 1.00 60.00 120.00
	 0 3510 900 3510
2 1 0 1 0 7 50 -1 -1 0.000 0 0 -1 1 1 2
	1 1 1.00 60.00 120.00
	1 1 1.00 60.00 120.00
	 900 3510 1800 3510
2 1 0 1 0 7 50 -1 -1 0.000 0 0 -1 1 1 2
	1 1 1.00 60.00 120.00
	1 1 1.00 60.00 120.00
	 1800 3510 2700 3510
2 1 0 1 0 7 50 -1 -1 0.000 0 0 -1 1 1 2
	1 1 1.00 60.00 120.00
	1 1 1.00 60.00 120.00
	 2700 3510 3600 3510
2 1 0 1 0 7 50 -1 -1 0.000 0 0 -1 1 1 2
	1 1 1.00 60.00 120.00
	1 1 1.00 60.00 120.00
	 3600 3510 4500 3510
2 1 0 1 0 7 50 -1 -1 0.000 0 0 -1 1 1 2
	1 1 1.00 60.00 120.00
	1 1 1.00 60.00 120.00
	 4500 3510 5400 3510
2 1 0 1 0 7 50 -1 -1 0.000 0 0 -1 1 1 2
	1 1 1.00 60.00 120.00
	1 1 1.00 60.00 120.00
	 5400 3510 6300 3510
2 1 0 1 0 7 50 -1 -1 0.000 0 0 -1 1 1 2
	1 1 1.00 60.00 120.00
	1 1 1.00 60.00 120.00
	 6300 3510 7200 3510
2 1 0 1 0 7 50 -1 -1 0.000 0 0 -1 1 1 2
	1 1 1.00 60.00 120.00
	1 1 1.00 60.00 120.00
	 8145 2565 8145 1305
2 1 0 1 0 7 50 -1 -1 0.000 0 0 -1 1 1 2
	1 1 1.00 60.00 120.00
	1 1 1.00 60.00 120.00
	 8145 1305 8145 0
2 1 1 1 0 7 50 -1 -1 4.000 0 0 -1 0 0 2
	 0 3780 0 13230
2 1 1 1 0 7 50 -1 -1 4.000 0 0 -1 0 0 2
	 3600 3825 3600 13320
2 1 1 1 0 7 50 -1 -1 4.000 0 0 -1 0 0 2
	 7200 3780 7200 13185
2 1 0 1 0 7 50 -1 -1 4.000 0 0 -1 0 0 2
	 -90 4725 7245 4725
2 1 0 1 0 7 50 -1 -1 4.000 0 0 -1 0 0 3
	 0 5310 3600 5310 7200 4140
2 1 0 3 0 7 50 -1 -1 0.000 0 0 -1 0 0 2
	 8505 810 15705 810
2 1 0 3 0 7 50 -1 -1 0.000 0 0 -1 0 0 3
	 8505 810 10305 3375 12105 810
2 1 0 3 0 7 50 -1 -1 0.000 0 0 -1 0 0 3
	 12124 797 13924 3362 15724 797
2 1 0 3 0 7 50 -1 -1 0.000 0 0 -1 0 0 4
	 10305 765 9405 2115 11160 2115 10305 810
2 1 0 3 0 7 50 -1 -1 0.000 0 0 -1 0 0 4
	 13947 793 13047 2143 14802 2143 13947 838
2 1 0 1 0 7 50 -1 -1 4.000 0 0 -1 1 0 2
	1 1 1.00 60.00 120.00
	 12105 90 12105 720
2 1 0 1 0 7 50 -1 -1 4.000 0 0 -1 1 0 2
	1 1 1.00 60.00 120.00
	 10305 4140 10305 3465
2 1 0 1 0 7 50 -1 -1 4.000 0 0 -1 1 0 2
	1 1 1.00 60.00 120.00
	 9540 3375 10125 3375
2 1 0 3 0 7 50 -1 -1 0.000 0 0 -1 0 0 3
	 8550 5040 10350 7605 12150 5040
2 1 0 3 0 7 50 -1 -1 0.000 0 0 -1 0 0 3
	 12169 5027 13969 7592 15769 5027
2 1 0 3 0 7 50 -1 -1 0.000 0 0 -1 0 0 4
	 10350 4995 9450 6345 11205 6345 10350 5040
2 1 0 3 0 7 50 -1 -1 0.000 0 0 -1 0 0 4
	 13992 5023 13092 6373 14847 6373 13992 5068
2 1 0 3 0 7 50 -1 -1 0.000 0 0 -1 0 0 2
	 8550 5040 15750 5040
2 1 0 1 0 7 50 -1 -1 4.000 0 0 -1 1 0 2
	1 1 1.00 60.00 120.00
	 10350 4320 10350 4950
2 1 0 1 0 7 50 -1 -1 4.000 0 0 -1 1 0 2
	1 1 1.00 60.00 120.00
	 10350 8370 10350 7695
2 1 0 1 0 7 50 -1 -1 4.000 0 0 -1 0 0 2
	 -45 6255 7290 6255
2 1 0 1 0 7 50 -1 -1 4.000 0 0 -1 0 0 2
	 0 7245 3600 6255
2 1 0 1 0 7 50 -1 -1 4.000 0 0 -1 0 0 2
	 1800 6255 1800 6750
2 1 0 1 0 7 50 -1 -1 4.000 0 0 -1 0 0 2
	 -45 8280 7290 8280
2 1 0 1 0 7 50 -1 -1 4.000 0 0 -1 0 0 2
	 1800 7785 1800 8280
2 1 0 1 0 7 50 -1 -1 4.000 0 0 -1 0 0 3
	 0 8280 1800 7785 3600 8280
2 1 0 1 0 7 50 -1 -1 4.000 0 0 -1 0 0 2
	 -45 8865 7290 8865
2 1 0 1 0 7 50 -1 -1 4.000 0 0 -1 0 0 2
	 1800 8865 1800 9360
2 1 0 1 0 7 50 -1 -1 4.000 0 0 -1 0 0 3
	 0 8865 1755 9360 3600 8865
2 1 0 1 0 7 50 -1 -1 4.000 0 0 -1 0 0 2
	 -45 10215 7290 10215
2 1 1 1 0 7 50 -1 -1 4.000 0 0 -1 0 0 2
	 1800 3690 1800 13275
2 1 0 1 0 7 50 -1 -1 4.000 0 0 -1 0 0 1
	 4320 11115
2 1 0 1 0 7 50 -1 -1 4.000 0 0 -1 1 0 2
	1 1 1.00 60.00 120.00
	 8370 8145 8370 8775
2 1 0 1 0 7 50 -1 -1 4.000 0 0 -1 1 0 2
	1 1 1.00 60.00 120.00
	 10170 11970 10170 11475
2 1 0 1 0 7 50 -1 -1 4.000 0 0 -1 1 0 2
	1 1 1.00 60.00 120.00
	 13815 11475 13815 11970
2 1 0 1 0 7 50 -1 -1 4.000 0 0 -1 1 0 2
	1 1 1.00 60.00 120.00
	 13995 11340 14625 11340
2 1 0 3 0 7 50 -1 -1 0.000 0 0 -1 0 0 2
	 8370 8820 15570 8820
2 1 0 3 0 7 50 -1 -1 0.000 0 0 -1 0 0 3
	 11989 8807 13789 11372 15589 8807
2 1 0 3 0 7 50 -1 -1 0.000 0 0 -1 0 0 4
	 10170 8775 9270 10125 11025 10125 10170 8820
2 1 0 3 0 7 50 -1 -1 0.000 0 0 -1 0 0 4
	 13812 8803 12912 10153 14667 10153 13812 8848
2 1 0 1 0 7 50 -1 -1 4.000 0 0 -1 1 0 2
	1 1 1.00 60.00 120.00
	 10935 11385 10305 11385
2 1 0 3 0 7 50 -1 -1 0.000 0 0 -1 0 0 3
	 8370 8820 10170 11385 11970 8820
2 1 1 1 0 7 50 -1 -1 4.000 0 0 -1 0 0 2
	 5400 3735 5400 13275
2 1 0 1 0 7 50 -1 -1 4.000 0 0 -1 0 0 4
	 0 10710 1800 10215 3600 10755 7200 9675
2 1 0 1 0 7 50 -1 -1 4.000 0 0 -1 0 0 2
	 -45 11745 7290 11745
2 1 0 1 0 7 50 -1 -1 4.000 0 0 -1 0 0 2
	 0 11295 1800 11745
2 1 0 1 0 7 50 -1 -1 4.000 0 0 -1 0 0 2
	 -90 12825 7245 12825
2 1 0 1 0 7 50 -1 -1 4.000 0 0 -1 0 0 2
	 8 12388 1808 12838
4 0 0 50 -1 0 20 0.0000 4 225 165 315 3465 2\001
4 0 0 50 -1 0 20 0.0000 4 225 165 1395 3465 2\001
4 0 0 50 -1 0 20 0.0000 4 225 165 2205 3465 2\001
4 0 0 50 -1 0 20 0.0000 4 225 165 3105 3465 2\001
4 0 0 50 -1 0 20 0.0000 4 225 165 4005 3465 2\001
4 0 0 50 -1 0 20 0.0000 4 225 165 4905 3465 2\001
4 0 0 50 -1 0 20 0.0000 4 225 165 5805 3465 2\001
4 0 0 50 -1 0 20 0.0000 4 225 165 6705 3465 2\001
4 0 0 50 -1 0 20 1.5708 4 225 585 8100 2295 3.47\001
4 0 0 50 -1 0 20 0.0000 4 225 240 -720 4770 N\001
4 0 0 50 -1 32 20 0.0000 4 255 195 -810 3825 h\001
4 0 0 50 -1 32 20 0.0000 4 255 195 -900 4770 h\001
4 0 0 50 -1 32 16 0.0000 4 210 345 -495 4860 1,3\001
4 0 0 50 -1 32 16 0.0000 4 195 765 3870 5400 -0.577\001
4 0 0 50 -1 32 16 0.0000 4 195 615 6435 4185 0.577\001
4 0 0 50 -1 0 20 0.0000 4 225 165 9180 2340 2\001
4 0 0 50 -1 0 20 0.0000 4 225 165 11205 2385 3\001
4 0 0 50 -1 0 20 0.0000 4 225 165 8325 1080 4\001
4 0 0 50 -1 0 20 0.0000 4 240 165 10260 765 5\001
4 0 0 50 -1 0 20 0.0000 4 225 165 11745 720 6\001
4 0 0 50 -1 32 16 0.0000 4 180 135 12150 405 1\001
4 0 0 50 -1 0 20 0.0000 4 225 165 10485 3465 1\001
4 0 0 50 -1 32 20 0.0000 4 240 420 10350 4050 0.5\001
4 0 0 50 -1 0 20 1.5708 4 225 585 8100 1035 3.47\001
4 0 0 50 -1 32 20 0.0000 4 225 750 9225 3285 0.289\001
4 0 0 50 -1 32 20 1.0472 4 240 930 10800 3330 -0.577\001
4 0 0 50 -1 32 20 0.0000 4 225 165 9270 1125 0\001
4 0 0 50 -1 32 20 5.2360 4 225 165 9090 1530 0\001
4 0 0 50 -1 32 20 5.2360 4 225 165 9900 2655 0\001
4 0 0 50 -1 32 20 0.0000 4 225 165 11160 1080 0\001
4 0 0 50 -1 32 20 0.0000 4 225 165 10125 2025 0\001
4 0 0 50 -1 32 20 5.2360 4 225 165 10755 1395 0\001
4 0 0 50 -1 32 20 1.0472 4 225 165 8386 3976 0\001
4 0 0 50 -1 32 20 1.0472 4 225 165 10665 2790 0\001
4 0 0 50 -1 32 20 1.0472 4 240 930 11655 2115 -0.577\001
4 0 0 50 -1 0 20 0.0000 4 225 165 9945 7740 1\001
4 0 0 50 -1 0 20 0.0000 4 225 165 9225 6570 2\001
4 0 0 50 -1 0 20 0.0000 4 225 165 11250 6615 3\001
4 0 0 50 -1 0 20 0.0000 4 225 165 8370 5310 4\001
4 0 0 50 -1 0 20 0.0000 4 225 165 11970 4950 6\001
4 0 0 50 -1 0 20 0.0000 4 240 165 9945 4950 5\001
4 0 0 50 -1 32 16 0.0000 4 180 135 10440 4590 1\001
4 0 0 50 -1 32 20 1.0472 4 240 930 10890 7515 -0.577\001
4 0 0 50 -1 32 20 1.0472 4 240 930 9585 6075 -0.577\001
4 0 0 50 -1 32 20 5.2360 4 240 930 10665 5310 -0.577\001
4 0 0 50 -1 32 20 5.2360 4 240 930 9720 6525 -0.577\001
4 0 0 50 -1 32 20 -0.0000 4 240 750 9900 6300 0.577\001
4 0 0 50 -1 32 16 0.0000 4 180 135 10395 8145 1\001
4 0 0 50 -1 0 20 0.0000 4 225 240 -675 6300 N\001
4 0 0 50 -1 32 16 0.0000 4 210 345 -450 6390 1,2\001
4 0 0 50 -1 32 16 0.0000 4 195 765 1935 6885 -0.577\001
4 0 0 50 -1 32 16 0.0000 4 180 765 180 7380 -1.154\001
4 0 0 50 -1 0 20 0.0000 4 225 240 -630 8370 N\001
4 0 0 50 -1 32 16 0.0000 4 210 345 -405 8460 2,3\001
4 0 0 50 -1 32 16 0.0000 4 195 615 2070 7830 0.577\001
4 0 0 50 -1 0 20 0.0000 4 225 240 -630 8910 N\001
4 0 0 50 -1 32 16 0.0000 4 210 345 -405 9000 2,5\001
4 0 0 50 -1 32 16 0.0000 4 195 765 2025 9450 -0.577\001
4 0 0 50 -1 32 16 0.0000 4 180 135 8460 8415 1\001
4 0 0 50 -1 0 20 0.0000 4 225 780 9315 225 LC 1:\001
4 0 0 50 -1 0 20 0.0000 4 225 690 8910 4455 LC 2\001
4 0 0 50 -1 0 20 0.0000 4 225 780 8910 8055 LC 3:\001
4 0 0 50 -1 0 20 0.0000 4 225 165 9045 10350 2\001
4 0 0 50 -1 0 20 0.0000 4 225 165 11070 10395 3\001
4 0 0 50 -1 0 20 0.0000 4 225 165 8190 9090 4\001
4 0 0 50 -1 0 20 0.0000 4 240 165 10125 8775 5\001
4 0 0 50 -1 0 20 0.0000 4 225 165 11790 8730 6\001
4 0 0 50 -1 0 20 0.0000 4 225 165 9765 11520 1\001
4 0 0 50 -1 0 20 0.0000 4 240 420 10305 11880 1.5\001
4 0 0 50 -1 0 20 0.0000 4 240 420 13905 11835 0.5\001
4 0 0 50 -1 0 20 5.2360 4 240 690 8730 9135 -1.15\001
4 0 0 50 -1 0 20 0.0000 4 240 750 8910 8730 0.577\001
4 0 0 50 -1 0 20 0.0000 4 240 750 10395 11340 0.289\001
4 0 0 50 -1 0 20 5.2360 4 240 690 9540 10305 -1.15\001
4 0 0 50 -1 0 20 1.0472 4 240 855 10305 11160 -0.577\001
4 0 0 50 -1 0 20 0.0000 4 240 750 14040 11250 0.289\001
4 0 0 50 -1 0 20 0.0000 4 240 750 10575 8730 0.577\001
4 0 0 50 -1 0 20 1.0472 4 240 855 11115 9990 -0.577\001
4 0 0 50 -1 0 20 0.0000 4 225 240 -630 10305 N\001
4 0 0 50 -1 32 16 0.0000 4 195 765 180 10935 -0.577\001
4 0 0 50 -1 32 16 0.0000 4 195 765 3690 10935 -0.577\001
4 0 0 50 -1 32 16 0.0000 4 195 615 6480 9675 0.577\001
4 0 0 50 -1 0 16 0.0000 4 225 345 -405 10440 3,6\001
4 0 0 50 -1 32 20 0.0000 4 255 195 -855 6300 h\001
4 0 0 50 -1 32 20 0.0000 4 255 195 -810 8370 h\001
4 0 0 50 -1 32 20 0.0000 4 255 195 -810 8910 h\001
4 0 0 50 -1 32 20 0.0000 4 255 195 -810 10305 h\001
4 0 0 50 -1 0 20 0.0000 4 225 165 5265 -135 7\001
4 0 0 50 -1 32 20 5.2360 4 225 165 9045 5625 0\001
4 0 0 50 -1 32 20 1.0472 4 225 165 11610 5670 0\001
4 0 0 50 -1 32 20 0.0000 4 225 165 9315 4950 0\001
4 0 0 50 -1 32 20 0.0000 4 225 165 11250 4950 0\001
4 0 0 50 -1 32 20 5.2360 4 225 165 10620 9405 0\001
4 0 0 50 -1 32 20 1.0472 4 225 165 9675 9405 0\001
4 0 0 50 -1 32 20 0.0000 4 225 165 10125 10035 0\001
4 0 0 50 -1 0 20 0.0000 4 225 240 -630 9270 N\001
4 0 0 50 -1 0 16 0.0000 4 210 345 -405 9315 3,5\001
4 0 0 50 -1 32 20 0.0000 4 255 195 -810 9270 h\001
4 0 0 50 -1 0 16 0.0000 4 210 345 -405 11835 4,5\001
4 0 0 50 -1 0 20 0.0000 4 225 240 -630 11790 N\001
4 0 0 50 -1 32 20 0.0000 4 255 195 -810 11790 h\001
4 0 0 50 -1 0 16 0.0000 4 225 345 -405 12870 5,6\001
4 0 0 50 -1 32 16 0.0000 4 195 615 135 11340 0.577\001
4 0 0 50 -1 0 20 0.0000 4 225 240 -630 12780 N\001
4 0 0 50 -1 32 20 0.0000 4 255 195 -810 12825 h\001
4 0 0 50 -1 32 16 0.0000 4 195 615 90 12375 0.577\001
